…
    ## [1] 3387623

``` r
weather_data <- ny_noaa %>%
  mutate(year = lubridate::year(date), 
         month = lubridate::month(date), 
         day = lubridate::day(date),
         tmin = as.numeric(tmin) / 10,
         tmax = as.numeric(tmax) / 10,
         prcp = as.numeric(prcp) / 10)

weather_data %>% count(snow) %>% arrange(desc(n))
```

    ## # A tibble: 282 x 2
    ##     snow       n
    ##    <int>   <int>
    ##  1     0 2008508
    ##  2    NA  381221
    ##  3    25   31022
    ##  4    13   23095
    ##  5    51   18274
    ##  6    76   10173
    ##  7     8    9962
    ##  8     5    9748
    ##  9    38    9197
    ## 10     3    8790
    ## # … with 272 more rows
…
